module coinbit-transaction

go 1.18

require (
	github.com/lovoo/goka v1.1.2
	google.golang.org/protobuf v1.28.0
)

require (
	github.com/Shopify/sarama v1.32.0 // indirect
	github.com/davecgh/go-spew v1.1.1 // indirect
	github.com/eapache/go-resiliency v1.2.0 // indirect
	github.com/eapache/go-xerial-snappy v0.0.0-20180814174437-776d5712da21 // indirect
	github.com/eapache/queue v1.1.0 // indirect
	github.com/go-redis/redis v6.15.9+incompatible // indirect
	github.com/go-stack/stack v1.8.0 // indirect
	github.com/golang/mock v1.4.3 // indirect
	github.com/golang/snappy v0.0.4 // indirect
	github.com/gorilla/mux v1.8.0 // indirect
	github.com/hashicorp/errwrap v1.0.0 // indirect
	github.com/hashicorp/go-multierror v1.1.1 // indirect
	github.com/hashicorp/go-uuid v1.0.2 // indirect
	github.com/jcmturner/aescts/v2 v2.0.0 // indirect
	github.com/jcmturner/dnsutils/v2 v2.0.0 // indirect
	github.com/jcmturner/gofork v1.0.0 // indirect
	github.com/jcmturner/gokrb5/v8 v8.4.2 // indirect
	github.com/jcmturner/rpc/v2 v2.0.3 // indirect
	github.com/klauspost/compress v1.14.4 // indirect
	github.com/pierrec/lz4 v2.6.1+incompatible // indirect
	github.com/rcrowley/go-metrics v0.0.0-20201227073835-cf1acfcdf475 // indirect
	github.com/syndtr/goleveldb v1.0.0 // indirect
	golang.org/x/crypto v0.0.0-20220214200702-86341886e292 // indirect
	golang.org/x/net v0.0.0-20220127200216-cd36cc0744dd // indirect
	golang.org/x/sync v0.0.0-20200625203802-6e8e738ad208 // indirect
)
